<?xml version="1.0" encoding="UTF-8" standalone="no"?>
<svg
   xmlns:dc="http://purl.org/dc/elements/1.1/"
   xmlns:cc="http://creativecommons.org/ns#"
   xmlns:rdf="http://www.w3.org/1999/02/22-rdf-syntax-ns#"
   xmlns:svg="http://www.w3.org/2000/svg"
   xmlns="http://www.w3.org/2000/svg"
   xmlns:sodipodi="http://sodipodi.sourceforge.net/DTD/sodipodi-0.dtd"
   xmlns:inkscape="http://www.inkscape.org/namespaces/inkscape"
   width="55mm"
   height="88.900002mm"
   viewBox="0 0 55 88.900001"
   version="1.1"
   id="svg1006"
   sodipodi:docname="card_background.svg"
   inkscape:version="1.0.1 (3bc2e813f5, 2020-09-07, custom)">
  <defs
     id="defs1000" />
  <sodipodi:namedview
     id="base"
     pagecolor="#ffffff"
     bordercolor="#666666"
     borderopacity="1.0"
     inkscape:pageopacity="0.0"
     inkscape:pageshadow="2"
     inkscape:zoom="0.98994949"
     inkscape:cx="89.341127"
     inkscape:cy="214.72635"
     inkscape:document-units="mm"
     inkscape:current-layer="layer1"
     inkscape:document-rotation="0"
     showgrid="false"
     inkscape:window-width="936"
     inkscape:window-height="1018"
     inkscape:window-x="968"
     inkscape:window-y="46"
     inkscape:window-maximized="0"
     fit-margin-top="0"
     fit-margin-left="0"
     fit-margin-right="0"
     fit-margin-bottom="0"
     inkscape:pagecheckerboard="true" />
  <metadata
     id="metadata1003">
    <rdf:RDF>
      <cc:Work
         rdf:about="">
        <dc:format>image/svg+xml</dc:format>
        <dc:type
           rdf:resource="http://purl.org/dc/dcmitype/StillImage" />
        <dc:title />
      </cc:Work>
    </rdf:RDF>
  </metadata>
  <g
     inkscape:label="Layer 1"
     inkscape:groupmode="layer"
     id="layer1"
     transform="translate(-75.633053,-69.434208)">
    <rect
       width="54.527531"
       height="88.427528"
       rx="9.0879211"
       ry="9.8252811"
       x="75.869286"
       y="69.670441"
       id="rect2987-1"
       style="fill:#ffffff;fill-opacity:1;fill-rule:evenodd;stroke:#000000;stroke-width:0.47247;stroke-miterlimit:4;stroke-dasharray:none"
       class="fg_background fg_background_stroke" />
    <rect
       width="45.43961"
       height="78.602249"
       rx="4.5439606"
       ry="4.9126406"
       x="80.413239"
       y="74.583084"
       id="rect3757-5"
       style="fill:#000000;fill-opacity:1;fill-rule:evenodd;stroke:none;stroke-width:0.944938"
       class="colorable" />
    <path
       d="m 116.76494,89.320987 c -20.076496,0 -36.351694,17.595713 -36.351694,39.301123 0,5.42636 4.068797,9.82528 9.087922,9.82528 20.076492,0 36.351692,-17.5957 36.351692,-39.301118 0,-5.426356 -4.06881,-9.825285 -9.08792,-9.825285 z"
       id="path3773-0-4-8-4-2"
       style="fill:#ffffff;fill-opacity:1;fill-rule:evenodd;stroke:none;stroke-width:0.944938"
       class="fg_background" />
  </g>
</svg>
