<?xml version="1.0" encoding="UTF-8" standalone="no"?>
<svg
   xmlns:dc="http://purl.org/dc/elements/1.1/"
   xmlns:cc="http://creativecommons.org/ns#"
   xmlns:rdf="http://www.w3.org/1999/02/22-rdf-syntax-ns#"
   xmlns:svg="http://www.w3.org/2000/svg"
   xmlns="http://www.w3.org/2000/svg"
   xmlns:sodipodi="http://sodipodi.sourceforge.net/DTD/sodipodi-0.dtd"
   xmlns:inkscape="http://www.inkscape.org/namespaces/inkscape"
   width="55mm"
   height="88.900002mm"
   viewBox="0 0 55 88.900001"
   version="1.1"
   id="svg1006"
   sodipodi:docname="card_plus2.svg"
   inkscape:version="1.0.1 (3bc2e813f5, 2020-09-07, custom)">
  <defs
     id="defs1000" />
  <sodipodi:namedview
     id="base"
     pagecolor="#ffffff"
     bordercolor="#666666"
     borderopacity="1.0"
     inkscape:pageopacity="0.0"
     inkscape:pageshadow="2"
     inkscape:zoom="1.979899"
     inkscape:cx="104.77823"
     inkscape:cy="161.2529"
     inkscape:document-units="mm"
     inkscape:current-layer="g225"
     inkscape:document-rotation="0"
     showgrid="false"
     inkscape:window-width="936"
     inkscape:window-height="1018"
     inkscape:window-x="968"
     inkscape:window-y="46"
     inkscape:window-maximized="0"
     fit-margin-top="0"
     fit-margin-left="0"
     fit-margin-right="0"
     fit-margin-bottom="0"
     inkscape:pagecheckerboard="true" />
  <metadata
     id="metadata1003">
    <rdf:RDF>
      <cc:Work
         rdf:about="">
        <dc:format>image/svg+xml</dc:format>
        <dc:type
           rdf:resource="http://purl.org/dc/dcmitype/StillImage" />
        <dc:title />
      </cc:Work>
    </rdf:RDF>
  </metadata>
  <g
     inkscape:label="Layer 1"
     inkscape:groupmode="layer"
     id="layer1"
     transform="translate(-75.633053,-69.434208)">
    <g
       transform="matrix(0.90909143,0,0,0.98232103,-755.95831,-610.44217)"
       id="g9420-2" />
    <g
       id="g241"
       class="fg_background">
      <g
         id="g229">
        <path
           d="m 923.5,704.86214 v 2.50002 H 921 v 2.49996 h 2.5 v 2.50002 h 2.5 v -2.50002 h 2.5 v -2.49996 H 926 v -2.50002 z"
           id="rect5649-4-2-7-6-2"
           style="fill:#ffffff;fill-opacity:1;fill-rule:evenodd;stroke:none"
           transform="matrix(0.90909143,0,0,0.98232103,-755.95832,-610.44217)" />
        <path
           d="m 935,699.86216 c -2.77,0 -5,2.23 -5,5 v 0.5 h 2.5 v -0.5 c 0,-1.385 1.115,-2.5 2.5,-2.5 1.385,0 2.5,1.115 2.5,2.5 0,0.56375 -0.46776,1.67007 -0.95623,2.05451 -2.6524,2.08747 -2.6244,1.74272 -6.54377,4.44549 v 3.5 h 5 5 v -2.5 -1 h -2.5 v 1 h -2.5 -2 c 3.09503,-2.17937 3.32135,-2.12655 5.74654,-4.29687 0.77704,-0.69538 1.25346,-2.07553 1.25346,-3.20313 0,-2.77 -2.23,-5 -5,-5 z"
           id="rect3163-52-9-8-1-1-2-7-3-6-0-9-5-9-2-20-7"
           style="fill:#ffffff;fill-opacity:1;stroke:none"
           transform="matrix(0.90909143,0,0,0.98232103,-755.95832,-610.44217)" />
      </g>
      <g
         id="g233">
        <path
           d="m 955,774.86229 c 2.77,0 5,-2.23 5,-5 v -0.5 h -2.5 v 0.5 c 0,1.385 -1.115,2.5 -2.5,2.5 -1.385,0 -2.5,-1.115 -2.5,-2.5 0,-0.5637 0.46776,-1.67 0.95623,-2.0545 2.6524,-2.0874 2.6244,-1.7427 6.54377,-4.4455 v -3.5 h -5 -5 v 2.5 1 h 2.5 v -1 h 2.5 2 c -3.09503,2.1794 -3.32135,2.1266 -5.74654,4.2969 -0.77704,0.6954 -1.25346,2.0755 -1.25346,3.2031 0,2.77 2.23,5 5,5 z"
           id="rect3163-52-9-8-1-1-2-7-3-6-0-9-5-9-2-2-8-5"
           style="fill:#ffffff;fill-opacity:1;stroke:none"
           transform="matrix(0.90909143,0,0,0.98232103,-755.95832,-610.44217)" />
        <path
           d="m 966.5,769.86229 v -2.5 h 2.5 v -2.4999 h -2.5 v -2.5001 H 964 v 2.5001 h -2.5 v 2.4999 h 2.5 v 2.5 z"
           id="rect5649-4-2-7-0-2-2"
           style="fill:#ffffff;fill-opacity:1;fill-rule:evenodd;stroke:none"
           transform="matrix(0.90909143,0,0,0.98232103,-755.95832,-610.44217)" />
      </g>
    </g>
    <g
       id="g225">
      <rect
         width="15"
         height="23.40037"
         rx="2.5"
         ry="2.3477995"
         x="1144.2469"
         y="759.06824"
         transform="matrix(0.90909143,0,-0.24974728,0.94452498,-755.95832,-610.44217)"
         id="rect6095-5-1-9"
         style="fill:#ffffff;fill-opacity:1;fill-rule:evenodd;stroke:#000000;stroke-width:0.509906;stroke-miterlimit:4;stroke-dasharray:none"
         class="fg_background fg_background_stroke" />
      <rect
         width="10"
         height="18.200279"
         rx="2.4999874"
         ry="2.3477879"
         x="1146.7469"
         y="761.66833"
         transform="matrix(0.90909143,0,-0.24974728,0.94452498,-755.95832,-610.44217)"
         id="rect6097-3-5-4"
         style="fill:#000000;fill-opacity:1;fill-rule:evenodd;stroke:none"
         class="colorable" />
      <rect
         width="15"
         height="23.40037"
         rx="2.5"
         ry="2.3477995"
         x="1152.104"
         y="751.26813"
         transform="matrix(0.90909143,0,-0.24974728,0.94452498,-755.95832,-610.44217)"
         id="rect6095-1-9-4"
         style="fill:#ffffff;fill-opacity:1;fill-rule:evenodd;stroke:#000000;stroke-width:0.509906;stroke-miterlimit:4;stroke-dasharray:none"
         class="fg_background fg_background_stroke" />
      <rect
         width="10"
         height="18.200279"
         rx="2.4999874"
         ry="2.3477879"
         x="1154.604"
         y="753.86823"
         transform="matrix(0.90909143,0,-0.24974728,0.94452498,-755.95832,-610.44217)"
         id="rect6097-8-08-8"
         style="fill:#000000;fill-opacity:1;fill-rule:evenodd;stroke:none"
         class="colorable" />
    </g>
  </g>
</svg>
