<?xml version="1.0" encoding="UTF-8" standalone="no"?>
<svg
   xmlns:dc="http://purl.org/dc/elements/1.1/"
   xmlns:cc="http://creativecommons.org/ns#"
   xmlns:rdf="http://www.w3.org/1999/02/22-rdf-syntax-ns#"
   xmlns:svg="http://www.w3.org/2000/svg"
   xmlns="http://www.w3.org/2000/svg"
   xmlns:sodipodi="http://sodipodi.sourceforge.net/DTD/sodipodi-0.dtd"
   xmlns:inkscape="http://www.inkscape.org/namespaces/inkscape"
   width="55mm"
   height="88.900002mm"
   viewBox="0 0 55 88.900001"
   version="1.1"
   id="svg1006"
   sodipodi:docname="card_num_4.svg"
   inkscape:version="1.0.1 (3bc2e813f5, 2020-09-07, custom)">
  <defs
     id="defs1000" />
  <sodipodi:namedview
     id="base"
     pagecolor="#ffffff"
     bordercolor="#666666"
     borderopacity="1.0"
     inkscape:pageopacity="0.0"
     inkscape:pageshadow="2"
     inkscape:zoom="0.98994949"
     inkscape:cx="-167.54133"
     inkscape:cy="277.55791"
     inkscape:document-units="mm"
     inkscape:current-layer="layer1"
     inkscape:document-rotation="0"
     showgrid="false"
     inkscape:window-width="1888"
     inkscape:window-height="1018"
     inkscape:window-x="16"
     inkscape:window-y="46"
     inkscape:window-maximized="0"
     fit-margin-top="0"
     fit-margin-left="0"
     fit-margin-right="0"
     fit-margin-bottom="0"
     inkscape:pagecheckerboard="true" />
  <metadata
     id="metadata1003">
    <rdf:RDF>
      <cc:Work
         rdf:about="">
        <dc:format>image/svg+xml</dc:format>
        <dc:type
           rdf:resource="http://purl.org/dc/dcmitype/StillImage" />
        <dc:title />
      </cc:Work>
    </rdf:RDF>
  </metadata>
  <g
     inkscape:label="Layer 1"
     inkscape:groupmode="layer"
     id="layer1"
     transform="translate(-75.633053,-69.434208)">
    <path
       d="m 102.04251,99.146298 -8.906171,19.650522 v 4.91265 h 10.905511 v 4.91266 h 4.54397 v -4.91266 h 2.72637 v -4.91265 h -2.72637 v -9.82523 h -4.54397 v 9.82523 h -6.179794 l 8.906164,-19.650522 z"
       id="rect3980-7-6-2-9-5-60-2"
       style="fill:#000000;fill-opacity:1;stroke:none;stroke-width:0.944938"
       class="colorable" />
    <g
       id="g80"
       class="fg_background">
      <path
         d="m 87.047431,77.03939 -4.453081,9.825282 v 2.45633 h 5.452752 v 2.45633 h 2.271981 v -2.45633 h 1.363188 v -2.45633 h -1.363188 v -4.912631 h -2.271981 v 4.912631 H 84.95721 l 4.453082,-9.825282 z"
         id="rect3980-7-6-2-9-5-60-5-3"
         style="fill:#ffffff;fill-opacity:1;stroke:none;stroke-width:0.944938" />
      <path
         d="m 119.03691,150.729 4.45309,-9.82529 v -2.45632 h -5.45276 v -2.45633 h -2.27197 v 2.45633 h -1.36319 v 2.45632 h 1.36319 v 4.91264 h 2.27197 v -4.91264 h 3.08989 l -4.45307,9.82529 z"
         id="rect3980-7-6-2-9-5-60-5-3-9"
         style="fill:#ffffff;fill-opacity:1;stroke:none;stroke-width:0.944938" />
    </g>
  </g>
</svg>
