<?xml version="1.0" encoding="UTF-8" standalone="no"?>
<svg
   xmlns:dc="http://purl.org/dc/elements/1.1/"
   xmlns:cc="http://creativecommons.org/ns#"
   xmlns:rdf="http://www.w3.org/1999/02/22-rdf-syntax-ns#"
   xmlns:svg="http://www.w3.org/2000/svg"
   xmlns="http://www.w3.org/2000/svg"
   xmlns:sodipodi="http://sodipodi.sourceforge.net/DTD/sodipodi-0.dtd"
   xmlns:inkscape="http://www.inkscape.org/namespaces/inkscape"
   width="55mm"
   height="88.900002mm"
   viewBox="0 0 55 88.900001"
   version="1.1"
   id="svg1006"
   sodipodi:docname="card_reverse.svg"
   inkscape:version="1.0.1 (3bc2e813f5, 2020-09-07, custom)">
  <defs
     id="defs1000" />
  <sodipodi:namedview
     id="base"
     pagecolor="#ffffff"
     bordercolor="#666666"
     borderopacity="1.0"
     inkscape:pageopacity="0.0"
     inkscape:pageshadow="2"
     inkscape:zoom="0.98994949"
     inkscape:cx="-167.54133"
     inkscape:cy="277.55791"
     inkscape:document-units="mm"
     inkscape:current-layer="layer1"
     inkscape:document-rotation="0"
     showgrid="false"
     inkscape:window-width="1888"
     inkscape:window-height="1018"
     inkscape:window-x="16"
     inkscape:window-y="46"
     inkscape:window-maximized="0"
     fit-margin-top="0"
     fit-margin-left="0"
     fit-margin-right="0"
     fit-margin-bottom="0"
     inkscape:pagecheckerboard="true" />
  <metadata
     id="metadata1003">
    <rdf:RDF>
      <cc:Work
         rdf:about="">
        <dc:format>image/svg+xml</dc:format>
        <dc:type
           rdf:resource="http://purl.org/dc/dcmitype/StillImage" />
        <dc:title />
      </cc:Work>
    </rdf:RDF>
  </metadata>
  <g
     inkscape:label="Layer 1"
     inkscape:groupmode="layer"
     id="layer1"
     transform="translate(-75.633053,-69.434208)">
    <path
       d="m 103.13306,97.918116 2.27198,2.456314 -9.087928,9.82528 c -2.271981,2.45632 -2.271981,7.36897 0,9.82528 l 4.543958,-4.91264 9.08793,-9.82528 2.27197,2.45632 v -9.825274 z"
       id="path5973-41"
       style="fill:#000000;stroke:none;stroke-width:0.944938"
       class="colorable" />
    <path
       d="m 103.13306,129.85027 -2.27199,-2.45631 9.08793,-9.82528 c 2.27197,-2.45633 2.27197,-7.36897 0,-9.82529 l -4.54396,4.91264 -9.087928,9.82528 -2.271981,-2.45632 v 9.82528 z"
       id="path5973-4-6"
       style="fill:#000000;stroke:none;stroke-width:0.944938"
       class="colorable" />
    <g
       id="g197"
       class="fg_background">
      <path
         d="m 87.22919,77.039381 1.13599,1.228154 -4.54396,4.912644 c -1.135991,1.228162 -1.135991,3.68448 0,4.912643 l 2.27198,-2.456327 4.54396,-4.912634 1.135991,1.228154 v -4.912634 z"
         id="path5973-6-5"
         style="fill:#ffffff;stroke:none;stroke-width:0.944938" />
      <path
         d="m 87.22919,93.005456 -1.13599,-1.228153 4.54396,-4.912644 c 1.135991,-1.228164 1.135991,-3.68448 0,-4.912644 l -2.27198,2.456326 -4.54396,4.912635 -1.135991,-1.228154 v 4.912634 z"
         id="path5973-4-3-5"
         style="fill:#ffffff;stroke:none;stroke-width:0.944938" />
      <path
         d="m 119.03691,134.76291 1.136,1.22816 -4.54397,4.91263 c -1.13599,1.22817 -1.13599,3.68449 0,4.91265 l 2.27198,-2.45632 4.54396,-4.91265 1.136,1.22817 v -4.91264 z"
         id="path5973-6-5-2"
         style="fill:#ffffff;stroke:none;stroke-width:0.944938" />
      <path
         d="m 119.03691,150.72899 -1.13599,-1.22816 4.54396,-4.91264 c 1.136,-1.22816 1.136,-3.68449 0,-4.91264 l -2.27197,2.45632 -4.54397,4.91265 -1.13599,-1.22817 v 4.91264 z"
         id="path5973-4-3-5-8"
         style="fill:#ffffff;stroke:none;stroke-width:0.944938" />
    </g>
  </g>
</svg>
