<?xml version="1.0" encoding="UTF-8" standalone="no"?>
<svg
   xmlns:dc="http://purl.org/dc/elements/1.1/"
   xmlns:cc="http://creativecommons.org/ns#"
   xmlns:rdf="http://www.w3.org/1999/02/22-rdf-syntax-ns#"
   xmlns:svg="http://www.w3.org/2000/svg"
   xmlns="http://www.w3.org/2000/svg"
   xmlns:sodipodi="http://sodipodi.sourceforge.net/DTD/sodipodi-0.dtd"
   xmlns:inkscape="http://www.inkscape.org/namespaces/inkscape"
   width="50.462875mm"
   height="46.86882mm"
   viewBox="0 0 50.462876 46.86882"
   version="1.1"
   id="svg70"
   sodipodi:docname="color_choose_green.svg"
   inkscape:version="1.0.1 (3bc2e813f5, 2020-09-07, custom)">
  <defs
     id="defs64" />
  <sodipodi:namedview
     id="base"
     pagecolor="#ffffff"
     bordercolor="#666666"
     borderopacity="1.0"
     inkscape:pageopacity="0.0"
     inkscape:pageshadow="2"
     inkscape:zoom="1.979899"
     inkscape:cx="-74.771229"
     inkscape:cy="103.28401"
     inkscape:document-units="mm"
     inkscape:current-layer="layer1"
     inkscape:document-rotation="0"
     showgrid="false"
     fit-margin-top="0"
     fit-margin-left="0"
     fit-margin-right="0"
     fit-margin-bottom="0"
     inkscape:pagecheckerboard="true"
     inkscape:window-width="936"
     inkscape:window-height="1018"
     inkscape:window-x="968"
     inkscape:window-y="46"
     inkscape:window-maximized="0" />
  <metadata
     id="metadata67">
    <rdf:RDF>
      <cc:Work
         rdf:about="">
        <dc:format>image/svg+xml</dc:format>
        <dc:type
           rdf:resource="http://purl.org/dc/dcmitype/StillImage" />
        <dc:title />
      </cc:Work>
    </rdf:RDF>
  </metadata>
  <g
     inkscape:label="Layer 1"
     inkscape:groupmode="layer"
     id="layer1"
     transform="translate(-70.842337,-130.56345)">
    <rect
       width="13.636334"
       height="22.861824"
       rx="2.2727225"
       ry="2.2937663"
       x="145.78668"
       y="148.08328"
       transform="matrix(1,0,-0.25562977,0.96677475,0,0)"
       id="rect6095-14-8-2"
       style="fill:#ffffff;fill-opacity:1;fill-rule:evenodd;stroke:#000000;stroke-width:0.480549;stroke-miterlimit:4;stroke-dasharray:none"
       pointer-events="visiblePainted" />
    <rect
       width="9.0908899"
       height="17.78141"
       rx="2.2727108"
       ry="2.2937548"
       x="148.0594"
       y="150.62352"
       transform="matrix(1,0,-0.25562977,0.96677475,0,0)"
       id="rect6097-6-7-1"
       style="fill:#55aa55;fill-opacity:1;fill-rule:evenodd;stroke:none;stroke-width:0.942427" />
  </g>
</svg>
