<?xml version="1.0" encoding="UTF-8" standalone="no"?>
<svg
   xmlns:dc="http://purl.org/dc/elements/1.1/"
   xmlns:cc="http://creativecommons.org/ns#"
   xmlns:rdf="http://www.w3.org/1999/02/22-rdf-syntax-ns#"
   xmlns:svg="http://www.w3.org/2000/svg"
   xmlns="http://www.w3.org/2000/svg"
   xmlns:xlink="http://www.w3.org/1999/xlink"
   xmlns:sodipodi="http://sodipodi.sourceforge.net/DTD/sodipodi-0.dtd"
   xmlns:inkscape="http://www.inkscape.org/namespaces/inkscape"
   width="67.069695mm"
   height="100.36351mm"
   viewBox="0 0 67.069695 100.36351"
   version="1.1"
   id="svg888"
   sodipodi:docname="deck.svg"
   inkscape:version="1.0.1 (3bc2e813f5, 2020-09-07, custom)">
  <defs
     id="defs882">
    <linearGradient
       inkscape:collect="always"
       id="linearGradient1479">
      <stop
         style="stop-color:#f6ff5b;stop-opacity:1"
         offset="0"
         id="stop1475" />
      <stop
         style="stop-color:#fff10a;stop-opacity:1"
         offset="1"
         id="stop1477" />
    </linearGradient>
    <linearGradient
       inkscape:collect="always"
       id="linearGradient1487">
      <stop
         style="stop-color:#ff5555;stop-opacity:1;"
         offset="0"
         id="stop1483" />
      <stop
         style="stop-color:#ff3f3f;stop-opacity:1"
         offset="1"
         id="stop1485" />
    </linearGradient>
    <radialGradient
       inkscape:collect="always"
       xlink:href="#linearGradient1487"
       id="radialGradient1825"
       gradientUnits="userSpaceOnUse"
       gradientTransform="matrix(0.54864273,-0.83605691,0.90389122,0.59315741,-58.224514,140.38217)"
       cx="103.13305"
       cy="113.88419"
       fx="103.13305"
       fy="113.88419"
       r="22.719807" />
    <radialGradient
       inkscape:collect="always"
       xlink:href="#linearGradient1479"
       id="radialGradient1827"
       gradientUnits="userSpaceOnUse"
       gradientTransform="matrix(1.1959461,0.02887082,-0.08018186,0.62398698,-9.0868035,41.043929)"
       cx="93.994087"
       cy="116.3726"
       fx="93.994087"
       fy="116.3726"
       r="9.194334" />
    <radialGradient
       inkscape:collect="always"
       xlink:href="#linearGradient1479"
       id="radialGradient1829"
       gradientUnits="userSpaceOnUse"
       gradientTransform="matrix(1.1959461,0.02887082,-0.08018186,0.62398698,-9.0868035,41.043929)"
       cx="93.994087"
       cy="116.3726"
       fx="93.994087"
       fy="116.3726"
       r="9.194334" />
    <radialGradient
       inkscape:collect="always"
       xlink:href="#linearGradient1487"
       id="radialGradient1923"
       gradientUnits="userSpaceOnUse"
       gradientTransform="matrix(0.54864273,-0.83605691,0.90389122,0.59315741,-58.224514,140.38217)"
       cx="103.13305"
       cy="113.88419"
       fx="103.13305"
       fy="113.88419"
       r="22.719807" />
    <radialGradient
       inkscape:collect="always"
       xlink:href="#linearGradient1479"
       id="radialGradient1925"
       gradientUnits="userSpaceOnUse"
       gradientTransform="matrix(1.1959461,0.02887082,-0.08018186,0.62398698,-9.0868035,41.043929)"
       cx="93.994087"
       cy="116.3726"
       fx="93.994087"
       fy="116.3726"
       r="9.194334" />
    <radialGradient
       inkscape:collect="always"
       xlink:href="#linearGradient1479"
       id="radialGradient1927"
       gradientUnits="userSpaceOnUse"
       gradientTransform="matrix(1.1959461,0.02887082,-0.08018186,0.62398698,-9.0868035,41.043929)"
       cx="93.994087"
       cy="116.3726"
       fx="93.994087"
       fy="116.3726"
       r="9.194334" />
  </defs>
  <sodipodi:namedview
     id="base"
     pagecolor="#ffffff"
     bordercolor="#666666"
     borderopacity="1.0"
     inkscape:pageopacity="0.0"
     inkscape:pageshadow="2"
     inkscape:zoom="2.8"
     inkscape:cx="110.23363"
     inkscape:cy="367.57185"
     inkscape:document-units="mm"
     inkscape:current-layer="g1823"
     inkscape:document-rotation="0"
     showgrid="false"
     inkscape:window-width="936"
     inkscape:window-height="1018"
     inkscape:window-x="968"
     inkscape:window-y="46"
     inkscape:window-maximized="0"
     fit-margin-top="0"
     fit-margin-left="0"
     fit-margin-right="0"
     fit-margin-bottom="0"
     units="mm"
     inkscape:pagecheckerboard="true" />
  <metadata
     id="metadata885">
    <rdf:RDF>
      <cc:Work
         rdf:about="">
        <dc:format>image/svg+xml</dc:format>
        <dc:type
           rdf:resource="http://purl.org/dc/dcmitype/StillImage" />
        <dc:title />
      </cc:Work>
    </rdf:RDF>
  </metadata>
  <g
     inkscape:label="Layer 1"
     inkscape:groupmode="layer"
     id="layer1"
     transform="translate(-76.997518,-53.260004)"
     pointer-events="visiblePainted">
    <g
       id="g1847"
       transform="rotate(46.144359,123.83497,124.91463)">
      <rect
         width="54.527531"
         height="88.427528"
         rx="9.0879211"
         ry="9.8252811"
         x="-73.442657"
         y="107.2512"
         id="rect1845"
         style="fill:#ffffff;fill-opacity:1;fill-rule:evenodd;stroke:#000000;stroke-width:0.472469;stroke-miterlimit:4;stroke-dasharray:none"
         transform="rotate(-56.726052)"
         class="fg_background fg_background_stroke" />
    </g>
    <g
       id="g1843"
       transform="rotate(46.144359,126.18259,123.91463)">
      <rect
         width="54.527531"
         height="88.427528"
         rx="9.0879211"
         ry="9.8252811"
         x="-73.442657"
         y="107.2512"
         id="rect1841"
         style="fill:#ffffff;fill-opacity:1;fill-rule:evenodd;stroke:#000000;stroke-width:0.472469;stroke-miterlimit:4;stroke-dasharray:none"
         transform="rotate(-56.726052)"
         class="fg_background fg_background_stroke" />
    </g>
    <g
       id="g1915"
       style="opacity:1"
       transform="rotate(46.144359,128.53046,122.9152)">
      <rect
         width="54.527531"
         height="88.427528"
         rx="9.0879211"
         ry="9.8252811"
         x="-73.442657"
         y="107.2512"
         id="rect1905"
         style="fill:#ffffff;fill-opacity:1;fill-rule:evenodd;stroke:#000000;stroke-width:0.472469;stroke-miterlimit:4;stroke-dasharray:none"
         transform="rotate(-56.726052)"
         class="fg_background fg_background_stroke" />
      <rect
         width="45.439613"
         height="78.602249"
         rx="4.5439606"
         ry="4.9126406"
         x="-68.898705"
         y="112.16384"
         id="rect1907"
         style="fill:#000000;fill-opacity:1;fill-rule:evenodd;stroke:none;stroke-width:0.944938"
         class="colorable"
         transform="rotate(-56.726052)" />
      <path
         d="m 88.24041,96.834864 c -11.014825,16.785096 -5.233076,40.045846 12.91388,51.954366 4.53675,2.97713 10.44681,1.98882 13.20052,-2.20746 11.01482,-16.78509 5.23308,-40.04583 -12.91388,-51.954354 -4.536748,-2.977133 -10.446822,-1.988814 -13.20052,2.207448 z"
         id="path1909"
         style="fill:url(#radialGradient1923);fill-opacity:1;fill-rule:evenodd;stroke:none;stroke-width:0.944938" />
      <g
         aria-label="UNO"
         transform="matrix(0.65970693,-2.0090773,2.1420381,0.68366936,-212.61949,234.05831)"
         id="g1913"
         style="font-style:normal;font-variant:normal;font-weight:bold;font-stretch:normal;font-size:10.5833px;line-height:1.25;font-family:Arial;-inkscape-font-specification:'Arial, Bold';font-variant-ligatures:normal;font-variant-caps:normal;font-variant-numeric:normal;font-variant-east-asian:normal;white-space:pre;shape-inside:url(#rect1429);fill:url(#radialGradient1927);fill-opacity:1;stroke:#000000;stroke-width:0.901598;stroke-linecap:butt;stroke-linejoin:round;stroke-miterlimit:4;stroke-dasharray:none;stroke-dashoffset:0;stroke-opacity:1;paint-order:stroke fill markers">
        <path
           id="path1911"
           style="font-style:normal;font-variant:normal;font-weight:bold;font-stretch:normal;font-size:10.5833px;font-family:Arial;-inkscape-font-specification:'Arial, Bold';font-variant-ligatures:normal;font-variant-caps:normal;font-variant-numeric:normal;font-variant-east-asian:normal;fill:url(#radialGradient1925);fill-opacity:1;stroke:#000000;stroke-width:0.901598;stroke-linecap:butt;stroke-linejoin:round;stroke-miterlimit:4;stroke-dasharray:none;stroke-dashoffset:0;stroke-opacity:1;paint-order:stroke fill markers"
           sodipodi:type="inkscape:offset"
           inkscape:radius="0"
           inkscape:original="M 103.81055 112.68945 C 103.19387 112.68945 102.64971 112.78847 102.17773 112.98828 C 101.82289 113.13642 101.49503 113.36526 101.19531 113.67188 C 100.89903 113.97849 100.66444 114.32314 100.49219 114.70898 C 100.26137 115.23264 100.14648 115.88064 100.14648 116.65234 C 100.14648 117.85812 100.47768 118.80707 101.14258 119.49609 C 101.80748 120.18166 102.70353 120.52344 103.83008 120.52344 C 104.94284 120.52344 105.83315 120.17925 106.49805 119.49023 C 107.16295 118.79777 107.49414 117.84019 107.49414 116.61719 C 107.49414 115.38385 107.15811 114.42098 106.48633 113.72852 C 105.81798 113.03606 104.92675 112.68945 103.81055 112.68945 z M 85.160156 112.81836 L 85.160156 116.85938 C 85.160156 117.70686 85.21064 118.34717 85.310547 118.78125 C 85.379448 119.07408 85.521241 119.35628 85.738281 119.625 C 85.955321 119.89027 86.250978 120.10658 86.623047 120.27539 C 86.998561 120.44075 87.548016 120.52344 88.271484 120.52344 C 88.870929 120.52344 89.356446 120.44846 89.728516 120.29688 C 90.100585 120.14184 90.396702 119.93416 90.617188 119.67578 C 90.841118 119.4174 90.99349 119.10012 91.076172 118.72461 C 91.158854 118.3491 91.201172 117.70638 91.201172 116.79688 L 91.201172 112.81836 L 89.671875 112.81836 L 89.671875 117.00977 C 89.671875 117.60921 89.648302 118.03849 89.603516 118.29688 C 89.55873 118.55526 89.427517 118.77398 89.207031 118.95312 C 88.986545 119.12883 88.65869 119.2168 88.224609 119.2168 C 87.797419 119.2168 87.458984 119.12353 87.210938 118.9375 C 86.96634 118.74802 86.811554 118.49755 86.746094 118.1875 C 86.7082 117.99457 86.689453 117.57299 86.689453 116.92188 L 86.689453 112.81836 L 85.160156 112.81836 z M 92.828125 112.81836 L 92.828125 120.39453 L 94.25 120.39453 L 94.25 115.45312 L 97.304688 120.39453 L 98.837891 120.39453 L 98.837891 112.81836 L 97.417969 112.81836 L 97.417969 117.87695 L 94.316406 112.81836 L 92.828125 112.81836 z M 103.82617 113.99609 C 104.45663 113.99609 104.96089 114.20953 105.33984 114.63672 C 105.72225 115.06391 105.91406 115.71192 105.91406 116.58008 C 105.91406 117.45858 105.71696 118.11958 105.32422 118.56055 C 104.93493 118.99807 104.43595 119.2168 103.82617 119.2168 C 103.21639 119.2168 102.71259 118.99565 102.31641 118.55469 C 101.92023 118.11027 101.72266 117.45939 101.72266 116.60156 C 101.72266 115.72996 101.91493 115.07907 102.30078 114.64844 C 102.68663 114.21436 103.19572 113.99609 103.82617 113.99609 z "
           d="m 103.81055,112.68945 c -0.61668,0 -1.16084,0.099 -1.63282,0.29883 -0.35484,0.14814 -0.6827,0.37698 -0.98242,0.6836 -0.29628,0.30661 -0.53087,0.65126 -0.70312,1.0371 -0.23082,0.52366 -0.34571,1.17166 -0.34571,1.94336 0,1.20578 0.3312,2.15473 0.9961,2.84375 0.6649,0.68557 1.56095,1.02735 2.6875,1.02735 1.11276,0 2.00307,-0.34419 2.66797,-1.03321 0.6649,-0.69246 0.99609,-1.65004 0.99609,-2.87304 0,-1.23334 -0.33603,-2.19621 -1.00781,-2.88867 -0.66835,-0.69246 -1.55958,-1.03907 -2.67578,-1.03907 z m -18.650394,0.12891 v 4.04102 c 0,0.84748 0.05048,1.48779 0.150391,1.92187 0.0689,0.29283 0.210694,0.57503 0.427734,0.84375 0.21704,0.26527 0.512697,0.48158 0.884766,0.65039 0.375514,0.16536 0.924969,0.24805 1.648437,0.24805 0.599445,0 1.084962,-0.075 1.457032,-0.22656 0.372069,-0.15504 0.668186,-0.36272 0.888672,-0.6211 0.22393,-0.25838 0.376302,-0.57566 0.458984,-0.95117 0.08268,-0.37551 0.125,-1.01823 0.125,-1.92773 v -3.97852 h -1.529297 v 4.19141 c 0,0.59944 -0.02357,1.02872 -0.06836,1.28711 -0.04479,0.25838 -0.175999,0.4771 -0.396485,0.65624 -0.220486,0.17571 -0.548341,0.26368 -0.982422,0.26368 -0.42719,0 -0.765625,-0.0933 -1.013671,-0.2793 -0.244598,-0.18948 -0.399384,-0.43995 -0.464844,-0.75 -0.03789,-0.19293 -0.05664,-0.61451 -0.05664,-1.26562 v -4.10352 z m 7.667969,0 v 7.57617 H 94.25 v -4.94141 l 3.054688,4.94141 h 1.533203 v -7.57617 h -1.419922 v 5.05859 l -3.101563,-5.05859 z m 10.998045,1.17773 c 0.63046,0 1.13472,0.21344 1.51367,0.64063 0.38241,0.42719 0.57422,1.0752 0.57422,1.94336 0,0.8785 -0.1971,1.5395 -0.58984,1.98047 -0.38929,0.43752 -0.88827,0.65625 -1.49805,0.65625 -0.60978,0 -1.11358,-0.22115 -1.50976,-0.66211 -0.39618,-0.44442 -0.59375,-1.0953 -0.59375,-1.95313 0,-0.8716 0.19227,-1.52249 0.57812,-1.95312 0.38585,-0.43408 0.89494,-0.65235 1.52539,-0.65235 z"
           transform="matrix(1.0320614,0,0,1.0320614,-3.1014886,-3.3960991)" />
      </g>
    </g>
    <g
       id="g1823"
       style="opacity:1"
       class="top_deck_card"
       transform="rotate(46.144359,130.87808,121.9152)">
      <rect
         width="54.527531"
         height="88.427528"
         rx="9.0879211"
         ry="9.8252811"
         x="-73.442657"
         y="107.2512"
         id="rect1813"
         style="fill:#ffffff;fill-opacity:1;fill-rule:evenodd;stroke:#000000;stroke-width:0.472469;stroke-miterlimit:4;stroke-dasharray:none"
         transform="rotate(-56.726052)"
         class="fg_background fg_background_stroke" />
      <rect
         width="45.439613"
         height="78.602249"
         rx="4.5439606"
         ry="4.9126406"
         x="-68.898705"
         y="112.16384"
         id="rect1815"
         style="fill:#000000;fill-opacity:1;fill-rule:evenodd;stroke:none;stroke-width:0.944938"
         class="colorable"
         transform="rotate(-56.726052)" />
      <path
         d="m 88.24041,96.834864 c -11.014825,16.785096 -5.233076,40.045846 12.91388,51.954366 4.53675,2.97713 10.44681,1.98882 13.20052,-2.20746 11.01482,-16.78509 5.23308,-40.04583 -12.91388,-51.954354 -4.536748,-2.977133 -10.446822,-1.988814 -13.20052,2.207448 z"
         id="path1817"
         style="fill:url(#radialGradient1825);fill-opacity:1;fill-rule:evenodd;stroke:none;stroke-width:0.944938" />
      <g
         aria-label="UNO"
         transform="matrix(0.65970693,-2.0090773,2.1420381,0.68366936,-212.61949,234.05831)"
         id="g1821"
         style="font-style:normal;font-variant:normal;font-weight:bold;font-stretch:normal;font-size:10.5833px;line-height:1.25;font-family:Arial;-inkscape-font-specification:'Arial, Bold';font-variant-ligatures:normal;font-variant-caps:normal;font-variant-numeric:normal;font-variant-east-asian:normal;white-space:pre;shape-inside:url(#rect1429);fill:url(#radialGradient1829);fill-opacity:1;stroke:#000000;stroke-width:0.901598;stroke-linecap:butt;stroke-linejoin:round;stroke-miterlimit:4;stroke-dasharray:none;stroke-dashoffset:0;stroke-opacity:1;paint-order:stroke fill markers">
        <path
           id="path1819"
           style="font-style:normal;font-variant:normal;font-weight:bold;font-stretch:normal;font-size:10.5833px;font-family:Arial;-inkscape-font-specification:'Arial, Bold';font-variant-ligatures:normal;font-variant-caps:normal;font-variant-numeric:normal;font-variant-east-asian:normal;fill:url(#radialGradient1827);fill-opacity:1;stroke:#000000;stroke-width:0.901598;stroke-linecap:butt;stroke-linejoin:round;stroke-miterlimit:4;stroke-dasharray:none;stroke-dashoffset:0;stroke-opacity:1;paint-order:stroke fill markers"
           sodipodi:type="inkscape:offset"
           inkscape:radius="0"
           inkscape:original="M 103.81055 112.68945 C 103.19387 112.68945 102.64971 112.78847 102.17773 112.98828 C 101.82289 113.13642 101.49503 113.36526 101.19531 113.67188 C 100.89903 113.97849 100.66444 114.32314 100.49219 114.70898 C 100.26137 115.23264 100.14648 115.88064 100.14648 116.65234 C 100.14648 117.85812 100.47768 118.80707 101.14258 119.49609 C 101.80748 120.18166 102.70353 120.52344 103.83008 120.52344 C 104.94284 120.52344 105.83315 120.17925 106.49805 119.49023 C 107.16295 118.79777 107.49414 117.84019 107.49414 116.61719 C 107.49414 115.38385 107.15811 114.42098 106.48633 113.72852 C 105.81798 113.03606 104.92675 112.68945 103.81055 112.68945 z M 85.160156 112.81836 L 85.160156 116.85938 C 85.160156 117.70686 85.21064 118.34717 85.310547 118.78125 C 85.379448 119.07408 85.521241 119.35628 85.738281 119.625 C 85.955321 119.89027 86.250978 120.10658 86.623047 120.27539 C 86.998561 120.44075 87.548016 120.52344 88.271484 120.52344 C 88.870929 120.52344 89.356446 120.44846 89.728516 120.29688 C 90.100585 120.14184 90.396702 119.93416 90.617188 119.67578 C 90.841118 119.4174 90.99349 119.10012 91.076172 118.72461 C 91.158854 118.3491 91.201172 117.70638 91.201172 116.79688 L 91.201172 112.81836 L 89.671875 112.81836 L 89.671875 117.00977 C 89.671875 117.60921 89.648302 118.03849 89.603516 118.29688 C 89.55873 118.55526 89.427517 118.77398 89.207031 118.95312 C 88.986545 119.12883 88.65869 119.2168 88.224609 119.2168 C 87.797419 119.2168 87.458984 119.12353 87.210938 118.9375 C 86.96634 118.74802 86.811554 118.49755 86.746094 118.1875 C 86.7082 117.99457 86.689453 117.57299 86.689453 116.92188 L 86.689453 112.81836 L 85.160156 112.81836 z M 92.828125 112.81836 L 92.828125 120.39453 L 94.25 120.39453 L 94.25 115.45312 L 97.304688 120.39453 L 98.837891 120.39453 L 98.837891 112.81836 L 97.417969 112.81836 L 97.417969 117.87695 L 94.316406 112.81836 L 92.828125 112.81836 z M 103.82617 113.99609 C 104.45663 113.99609 104.96089 114.20953 105.33984 114.63672 C 105.72225 115.06391 105.91406 115.71192 105.91406 116.58008 C 105.91406 117.45858 105.71696 118.11958 105.32422 118.56055 C 104.93493 118.99807 104.43595 119.2168 103.82617 119.2168 C 103.21639 119.2168 102.71259 118.99565 102.31641 118.55469 C 101.92023 118.11027 101.72266 117.45939 101.72266 116.60156 C 101.72266 115.72996 101.91493 115.07907 102.30078 114.64844 C 102.68663 114.21436 103.19572 113.99609 103.82617 113.99609 z "
           d="m 103.81055,112.68945 c -0.61668,0 -1.16084,0.099 -1.63282,0.29883 -0.35484,0.14814 -0.6827,0.37698 -0.98242,0.6836 -0.29628,0.30661 -0.53087,0.65126 -0.70312,1.0371 -0.23082,0.52366 -0.34571,1.17166 -0.34571,1.94336 0,1.20578 0.3312,2.15473 0.9961,2.84375 0.6649,0.68557 1.56095,1.02735 2.6875,1.02735 1.11276,0 2.00307,-0.34419 2.66797,-1.03321 0.6649,-0.69246 0.99609,-1.65004 0.99609,-2.87304 0,-1.23334 -0.33603,-2.19621 -1.00781,-2.88867 -0.66835,-0.69246 -1.55958,-1.03907 -2.67578,-1.03907 z m -18.650394,0.12891 v 4.04102 c 0,0.84748 0.05048,1.48779 0.150391,1.92187 0.0689,0.29283 0.210694,0.57503 0.427734,0.84375 0.21704,0.26527 0.512697,0.48158 0.884766,0.65039 0.375514,0.16536 0.924969,0.24805 1.648437,0.24805 0.599445,0 1.084962,-0.075 1.457032,-0.22656 0.372069,-0.15504 0.668186,-0.36272 0.888672,-0.6211 0.22393,-0.25838 0.376302,-0.57566 0.458984,-0.95117 0.08268,-0.37551 0.125,-1.01823 0.125,-1.92773 v -3.97852 h -1.529297 v 4.19141 c 0,0.59944 -0.02357,1.02872 -0.06836,1.28711 -0.04479,0.25838 -0.175999,0.4771 -0.396485,0.65624 -0.220486,0.17571 -0.548341,0.26368 -0.982422,0.26368 -0.42719,0 -0.765625,-0.0933 -1.013671,-0.2793 -0.244598,-0.18948 -0.399384,-0.43995 -0.464844,-0.75 -0.03789,-0.19293 -0.05664,-0.61451 -0.05664,-1.26562 v -4.10352 z m 7.667969,0 v 7.57617 H 94.25 v -4.94141 l 3.054688,4.94141 h 1.533203 v -7.57617 h -1.419922 v 5.05859 l -3.101563,-5.05859 z m 10.998045,1.17773 c 0.63046,0 1.13472,0.21344 1.51367,0.64063 0.38241,0.42719 0.57422,1.0752 0.57422,1.94336 0,0.8785 -0.1971,1.5395 -0.58984,1.98047 -0.38929,0.43752 -0.88827,0.65625 -1.49805,0.65625 -0.60978,0 -1.11358,-0.22115 -1.50976,-0.66211 -0.39618,-0.44442 -0.59375,-1.0953 -0.59375,-1.95313 0,-0.8716 0.19227,-1.52249 0.57812,-1.95312 0.38585,-0.43408 0.89494,-0.65235 1.52539,-0.65235 z"
           transform="matrix(1.0320614,0,0,1.0320614,-3.1014886,-3.3960991)" />
      </g>
    </g>
  </g>
</svg>
